{
  "required": true,
  "minVersion": "0.8",
  "package": "net.sssubtlety.anvil_crushing_recipes.mixin",
  "compatibilityLevel": "JAVA_8",
  "mixins": [
    "FallingBlockEntityMixin",
    "LivingEntityMixin"
  ],
  "injectors": {
    "defaultRequire": 1
  }
}
