{
  "block_ingredient": [
    "deepslate_coal_ore",
    "deepslate_iron_ore",
    "deepslate_copper_ore",
    "deepslate_gold_ore",
    "deepslate_redstone_ore",
    "deepslate_emerald_ore",
    "deepslate_lapis_ore",
    "deepslate_diamond_ore"
  ],
  "ingredient_drop_chance": 1,
  "block_output": "cobbled_deepslate"
}