{
  "type": "anvil_crushing_recipes:anvil_crushing",
  "block_ingredient": {
    "block": "minecraft:polished_blackstone_bricks"
  },
  "block_output": "minecraft:cracked_polished_blackstone_bricks"
}