{
  "type": "anvil_crushing_recipes:anvil_crushing",
  "block_ingredient": [
    {"block": "minecraft:smooth_quartz"},
    {"block": "minecraft:quartz_pillar"},
    {"block": "minecraft:chiseled_quartz_block"}
  ],
  "block_output": "minecraft:quartz_block"
}