{
  "type": "anvil_crushing_recipes:anvil_crushing",
  "block_ingredient": [
    {"block": "minecraft:stone_bricks"},
    {"block": "minecraft:mossy_stone_bricks"},
    {"block": "minecraft:chiseled_stone_bricks"}
  ],
  "block_output": "minecraft:cracked_stone_bricks"
}