{
    "block_ingredient": [
      { "block": "minecraft:chiseled_polished_blackstone" },
      { "block": "minecraft:polished_blackstone" },
      { "block": "minecraft:cracked_polished_blackstone_bricks" }
    ],
  "block_output": "minecraft:blackstone"
}